utilities/ApiUtils.class
utilities/Helpers.class
stepdefinitions/Hooks.class
pages/MyAccountPage.class
utilities/SeleniumUtils$1.class
pojos/Address.class
utilities/SeleniumUtils.class
pojos/User.class
utilities/Driver.class
stepdefinitions/DataTableTypes.class
runners/Runner.class
utilities/ConfigReader.class
stepdefinitions/AccountSteps.class
stepdefinitions/LoginSteps.class
stepdefinitions/CartSteps_API.class
stepdefinitions/AccountSteps_API.class
pages/SignInPage.class
stepdefinitions/AccountCommonSteps.class
